…
dim(albon)

## [1] 2100   68

# We could also use the following but I wanted to see the tweets from Chris Albon
# albon1 <- rtweet::search_tweets(q = "machinelearningflashcards.com", 
#                                 include_rts = FALSE, 
#                                 retryonratelimit = TRUE)

We have got a tibble with 2000 observations and 68 columns. Now, let’s look at the actual tweets. We will be looking at the column text as it has the text of the tweet.

# Text of tweet
albon[, "text"]

## # A tibble: 2,100 x 1
##                                                                                  text
##                                                                                 <chr>
##  1        @chrisalbon ..... for the love of god.. we tried, but the client escalated 
##  2 "@chrisalbon \xf0\u009f\u0091\u008d\xf0\u009f\u008f<U+00BE> my company has a code 
##  3                                                   Wise man https://t.co/eGpk9gjuZ9
##  4                                    Been there.  Done that. https://t.co/FNd21DZD8y
##  5        "When you have to work from your significant others old bedroom \xf0\u009f
##  6                                                 @chrisalbon Been there. Done that.
##  7                                      "@chrisalbon Too late \xf0\u009f\u0098\u008a"
##  8                                @chrisalbon @MystyVander We deployed last night tho
##  9        @chrisalbon Pelican. Hugo is pretty nice too, but I only use it with Rs bl
## 10        or deploy and artfully walk away from that spouse &amp; racist uncle https:
## # ... with 2,090 more rows
…
